0.01 	 1.5608 	 1.5608
0.03 	 1.54079 	 1.54079
0.05 	 1.52078 	 1.52078
0.07 	 1.50074 	 1.50074
0.09 	 1.48067 	 1.48067
0.11 	 1.46057 	 1.46057
0.13 	 1.44043 	 1.44043
0.15 	 1.42023 	 1.42023
0.17 	 1.39997 	 1.39997
0.19 	 1.37963 	 1.37963
0.21 	 1.35922 	 1.35922
0.23 	 1.33872 	 1.33872
0.25 	 1.31812 	 1.31812
0.27 	 1.2974 	 1.2974
0.29 	 1.27657 	 1.27657
0.31 	 1.2556 	 1.2556
0.33 	 1.23449 	 1.23449
0.35 	 1.21323 	 1.21323
0.37 	 1.19179 	 1.19179
0.39 	 1.17016 	 1.17016
0.41 	 1.14834 	 1.14834
0.43 	 1.1263 	 1.1263
0.45 	 1.10403 	 1.10403
0.47 	 1.08151 	 1.08151
0.49 	 1.05871 	 1.05871
0.51 	 1.03561 	 1.03561
0.53 	 1.0122 	 1.0122
0.55 	 0.988432 	 0.988432
0.57 	 0.96429 	 0.96429
0.59 	 0.939737 	 0.939737
0.61 	 0.914736 	 0.914736
0.63 	 0.889243 	 0.889243
0.65 	 0.863212 	 0.863212
0.67 	 0.836588 	 0.836588
0.69 	 0.809307 	 0.809307
0.71 	 0.781298 	 0.781298
0.73 	 0.752474 	 0.752474
0.75 	 0.722734 	 0.722734
0.77 	 0.691955 	 0.691955
0.79 	 0.659987 	 0.659987
0.81 	 0.626644 	 0.626644
0.83 	 0.591689 	 0.591689
0.85 	 0.554811 	 0.554811
0.87 	 0.515594 	 0.515594
0.89 	 0.473451 	 0.473451
0.91 	 0.427512 	 0.427512
0.93 	 0.376383 	 0.376383
0.95 	 0.31756 	 0.31756
0.97 	 0.245566 	 0.245566
