<?xml version="1.0" encoding="utf-8"  standalone="no"?>
<svg 
 width="600" height="480"
 viewBox="0 0 600 480"
 xmlns="http://www.w3.org/2000/svg"
 xmlns:xlink="http://www.w3.org/1999/xlink"
>

<title>Gnuplot</title>
<desc>Produced by GNUPLOT 5.2 patchlevel 2 </desc>

<g id="gnuplot_canvas">

<rect x="0" y="0" width="600" height="480" fill="none"/>
<defs>

	<circle id='gpDot' r='0.5' stroke-width='0.5'/>
	<path id='gpPt0' stroke-width='0.222' stroke='currentColor' d='M-1,0 h2 M0,-1 v2'/>
	<path id='gpPt1' stroke-width='0.222' stroke='currentColor' d='M-1,-1 L1,1 M1,-1 L-1,1'/>
	<path id='gpPt2' stroke-width='0.222' stroke='currentColor' d='M-1,0 L1,0 M0,-1 L0,1 M-1,-1 L1,1 M-1,1 L1,-1'/>
	<rect id='gpPt3' stroke-width='0.222' stroke='currentColor' x='-1' y='-1' width='2' height='2'/>
	<rect id='gpPt4' stroke-width='0.222' stroke='currentColor' fill='currentColor' x='-1' y='-1' width='2' height='2'/>
	<circle id='gpPt5' stroke-width='0.222' stroke='currentColor' cx='0' cy='0' r='1'/>
	<use xlink:href='#gpPt5' id='gpPt6' fill='currentColor' stroke='none'/>
	<path id='gpPt7' stroke-width='0.222' stroke='currentColor' d='M0,-1.33 L-1.33,0.67 L1.33,0.67 z'/>
	<use xlink:href='#gpPt7' id='gpPt8' fill='currentColor' stroke='none'/>
	<use xlink:href='#gpPt7' id='gpPt9' stroke='currentColor' transform='rotate(180)'/>
	<use xlink:href='#gpPt9' id='gpPt10' fill='currentColor' stroke='none'/>
	<use xlink:href='#gpPt3' id='gpPt11' stroke='currentColor' transform='rotate(45)'/>
	<use xlink:href='#gpPt11' id='gpPt12' fill='currentColor' stroke='none'/>
	<path id='gpPt13' stroke-width='0.222' stroke='currentColor' d='M0,1.330 L1.265,0.411 L0.782,-1.067 L-0.782,-1.076 L-1.265,0.411 z'/>
	<use xlink:href='#gpPt13' id='gpPt14' fill='currentColor' stroke='none'/>
	<filter id='textbox' filterUnits='objectBoundingBox' x='0' y='0' height='1' width='1'>
	  <feFlood flood-color='white' flood-opacity='1' result='bgnd'/>
	  <feComposite in='SourceGraphic' in2='bgnd' operator='atop'/>
	</filter>
	<filter id='greybox' filterUnits='objectBoundingBox' x='0' y='0' height='1' width='1'>
	  <feFlood flood-color='lightgrey' flood-opacity='1' result='grey'/>
	  <feComposite in='SourceGraphic' in2='grey' operator='atop'/>
	</filter>
</defs>
<g fill="none" color="white" stroke="currentColor" stroke-width="1.00" stroke-linecap="butt" stroke-linejoin="miter">
</g>
<g fill="none" color="black" stroke="currentColor" stroke-width="1.00" stroke-linecap="butt" stroke-linejoin="miter">
	<path stroke='black'  d='M80.9,413.4 L71.9,413.4 M457.4,413.4 L466.4,413.4  '/>	<g transform="translate(63.6,417.3)" stroke="none" fill="black" font-family="Arial" font-size="12.00"  text-anchor="end">
		<text><tspan font-family="Arial" >-1</tspan></text>
	</g>
</g>
<g fill="none" color="black" stroke="currentColor" stroke-width="1.00" stroke-linecap="butt" stroke-linejoin="miter">
	<path stroke='black'  d='M80.9,377.5 L71.9,377.5 M457.4,377.5 L466.4,377.5  '/>	<g transform="translate(63.6,381.4)" stroke="none" fill="black" font-family="Arial" font-size="12.00"  text-anchor="end">
		<text><tspan font-family="Arial" >-0.8</tspan></text>
	</g>
</g>
<g fill="none" color="black" stroke="currentColor" stroke-width="1.00" stroke-linecap="butt" stroke-linejoin="miter">
	<path stroke='black'  d='M80.9,341.5 L71.9,341.5 M457.4,341.5 L466.4,341.5  '/>	<g transform="translate(63.6,345.4)" stroke="none" fill="black" font-family="Arial" font-size="12.00"  text-anchor="end">
		<text><tspan font-family="Arial" >-0.6</tspan></text>
	</g>
</g>
<g fill="none" color="black" stroke="currentColor" stroke-width="1.00" stroke-linecap="butt" stroke-linejoin="miter">
	<path stroke='black'  d='M80.9,305.6 L71.9,305.6 M457.4,305.6 L466.4,305.6  '/>	<g transform="translate(63.6,309.5)" stroke="none" fill="black" font-family="Arial" font-size="12.00"  text-anchor="end">
		<text><tspan font-family="Arial" >-0.4</tspan></text>
	</g>
</g>
<g fill="none" color="black" stroke="currentColor" stroke-width="1.00" stroke-linecap="butt" stroke-linejoin="miter">
	<path stroke='black'  d='M80.9,269.7 L71.9,269.7 M457.4,269.7 L466.4,269.7  '/>	<g transform="translate(63.6,273.6)" stroke="none" fill="black" font-family="Arial" font-size="12.00"  text-anchor="end">
		<text><tspan font-family="Arial" >-0.2</tspan></text>
	</g>
</g>
<g fill="none" color="black" stroke="currentColor" stroke-width="1.00" stroke-linecap="butt" stroke-linejoin="miter">
	<path stroke='black'  d='M80.9,233.7 L71.9,233.7 M457.4,233.7 L466.4,233.7  '/>	<g transform="translate(63.6,237.6)" stroke="none" fill="black" font-family="Arial" font-size="12.00"  text-anchor="end">
		<text><tspan font-family="Arial" > 0</tspan></text>
	</g>
</g>
<g fill="none" color="black" stroke="currentColor" stroke-width="1.00" stroke-linecap="butt" stroke-linejoin="miter">
	<path stroke='black'  d='M80.9,197.8 L71.9,197.8 M457.4,197.8 L466.4,197.8  '/>	<g transform="translate(63.6,201.7)" stroke="none" fill="black" font-family="Arial" font-size="12.00"  text-anchor="end">
		<text><tspan font-family="Arial" > 0.2</tspan></text>
	</g>
</g>
<g fill="none" color="black" stroke="currentColor" stroke-width="1.00" stroke-linecap="butt" stroke-linejoin="miter">
	<path stroke='black'  d='M80.9,161.9 L71.9,161.9 M457.4,161.9 L466.4,161.9  '/>	<g transform="translate(63.6,165.8)" stroke="none" fill="black" font-family="Arial" font-size="12.00"  text-anchor="end">
		<text><tspan font-family="Arial" > 0.4</tspan></text>
	</g>
</g>
<g fill="none" color="black" stroke="currentColor" stroke-width="1.00" stroke-linecap="butt" stroke-linejoin="miter">
	<path stroke='black'  d='M80.9,126.0 L71.9,126.0 M457.4,126.0 L466.4,126.0  '/>	<g transform="translate(63.6,129.9)" stroke="none" fill="black" font-family="Arial" font-size="12.00"  text-anchor="end">
		<text><tspan font-family="Arial" > 0.6</tspan></text>
	</g>
</g>
<g fill="none" color="black" stroke="currentColor" stroke-width="1.00" stroke-linecap="butt" stroke-linejoin="miter">
	<path stroke='black'  d='M80.9,90.0 L71.9,90.0 M457.4,90.0 L466.4,90.0  '/>	<g transform="translate(63.6,93.9)" stroke="none" fill="black" font-family="Arial" font-size="12.00"  text-anchor="end">
		<text><tspan font-family="Arial" > 0.8</tspan></text>
	</g>
</g>
<g fill="none" color="black" stroke="currentColor" stroke-width="1.00" stroke-linecap="butt" stroke-linejoin="miter">
	<path stroke='black'  d='M80.9,54.1 L71.9,54.1 M457.4,54.1 L466.4,54.1  '/>	<g transform="translate(63.6,58.0)" stroke="none" fill="black" font-family="Arial" font-size="12.00"  text-anchor="end">
		<text><tspan font-family="Arial" > 1</tspan></text>
	</g>
</g>
<g fill="none" color="black" stroke="currentColor" stroke-width="1.00" stroke-linecap="butt" stroke-linejoin="miter">
	<path stroke='black'  d='M80.9,413.4 L80.9,422.4 M80.9,54.1 L80.9,45.1  '/>	<g transform="translate(80.9,444.3)" stroke="none" fill="black" font-family="Arial" font-size="12.00"  text-anchor="middle">
		<text><tspan font-family="Arial" > 0</tspan></text>
	</g>
</g>
<g fill="none" color="black" stroke="currentColor" stroke-width="1.00" stroke-linecap="butt" stroke-linejoin="miter">
	<path stroke='black'  d='M156.2,413.4 L156.2,422.4 M156.2,54.1 L156.2,45.1  '/>	<g transform="translate(156.2,444.3)" stroke="none" fill="black" font-family="Arial" font-size="12.00"  text-anchor="middle">
		<text><tspan font-family="Arial" > 1</tspan></text>
	</g>
</g>
<g fill="none" color="black" stroke="currentColor" stroke-width="1.00" stroke-linecap="butt" stroke-linejoin="miter">
	<path stroke='black'  d='M231.5,413.4 L231.5,422.4 M231.5,54.1 L231.5,45.1  '/>	<g transform="translate(231.5,444.3)" stroke="none" fill="black" font-family="Arial" font-size="12.00"  text-anchor="middle">
		<text><tspan font-family="Arial" > 2</tspan></text>
	</g>
</g>
<g fill="none" color="black" stroke="currentColor" stroke-width="1.00" stroke-linecap="butt" stroke-linejoin="miter">
	<path stroke='black'  d='M306.8,413.4 L306.8,422.4 M306.8,54.1 L306.8,45.1  '/>	<g transform="translate(306.8,444.3)" stroke="none" fill="black" font-family="Arial" font-size="12.00"  text-anchor="middle">
		<text><tspan font-family="Arial" > 3</tspan></text>
	</g>
</g>
<g fill="none" color="black" stroke="currentColor" stroke-width="1.00" stroke-linecap="butt" stroke-linejoin="miter">
	<path stroke='black'  d='M382.1,413.4 L382.1,422.4 M382.1,54.1 L382.1,45.1  '/>	<g transform="translate(382.1,444.3)" stroke="none" fill="black" font-family="Arial" font-size="12.00"  text-anchor="middle">
		<text><tspan font-family="Arial" > 4</tspan></text>
	</g>
</g>
<g fill="none" color="black" stroke="currentColor" stroke-width="1.00" stroke-linecap="butt" stroke-linejoin="miter">
	<path stroke='black'  d='M457.4,413.4 L457.4,422.4 M457.4,54.1 L457.4,45.1  '/>	<g transform="translate(457.4,444.3)" stroke="none" fill="black" font-family="Arial" font-size="12.00"  text-anchor="middle">
		<text><tspan font-family="Arial" > 5</tspan></text>
	</g>
</g>
<g fill="none" color="black" stroke="currentColor" stroke-width="1.00" stroke-linecap="butt" stroke-linejoin="miter">
</g>
<g fill="none" color="black" stroke="currentColor" stroke-width="1.00" stroke-linecap="butt" stroke-linejoin="miter">
	<path stroke='black'  d='M80.9,54.1 L80.9,413.4 L457.4,413.4 L457.4,54.1 L80.9,54.1 Z  '/></g>
<g fill="none" color="black" stroke="currentColor" stroke-width="1.00" stroke-linecap="butt" stroke-linejoin="miter">
	<g transform="translate(16.3,233.8) rotate(270)" stroke="none" fill="black" font-family="Arial" font-size="12.00"  text-anchor="middle">
		<text><tspan font-family="Arial" >y</tspan></text>
	</g>
</g>
<g fill="none" color="black" stroke="currentColor" stroke-width="1.00" stroke-linecap="butt" stroke-linejoin="miter">
	<g transform="translate(269.1,471.3)" stroke="none" fill="black" font-family="Arial" font-size="12.00"  text-anchor="middle">
		<text><tspan font-family="Arial" >x</tspan></text>
	</g>
</g>
<g fill="none" color="black" stroke="currentColor" stroke-width="1.00" stroke-linecap="butt" stroke-linejoin="miter">
	<g transform="translate(269.1,31.0)" stroke="none" fill="black" font-family="Arial" font-size="12.00"  text-anchor="middle">
		<text><tspan font-family="Arial" >Title</tspan></text>
	</g>
</g>
	<g id="gnuplot_plot_1" ><title>sin(x)</title>
<g fill="none" color="black" stroke="currentColor" stroke-width="1.00" stroke-linecap="butt" stroke-linejoin="miter">
	<g transform="translate(532.8,67.0)" stroke="none" fill="black" font-family="Arial" font-size="12.00"  text-anchor="end">
		<text>sin(x)</text>
	</g>
</g>
<g fill="none" color="black" stroke="currentColor" stroke-width="1.00" stroke-linecap="butt" stroke-linejoin="miter">
	<path stroke='rgb(148,   0, 211)'  d='M541.1,63.1 L583.3,63.1 M80.9,233.7 L84.7,224.7 L88.5,215.6 L92.3,206.6 L96.1,197.7 L99.9,188.9
		L103.7,180.1 L107.5,171.6 L111.3,163.1 L115.1,154.9 L118.9,146.8 L122.7,139.0 L126.5,131.4 L130.3,124.1
		L134.1,117.0 L137.9,110.3 L141.7,103.9 L145.6,97.8 L149.4,92.0 L153.2,86.6 L157.0,81.6 L160.8,77.0
		L164.6,72.7 L168.4,68.9 L172.2,65.5 L176.0,62.6 L179.8,60.0 L183.6,57.9 L187.4,56.3 L191.2,55.1
		L195.0,54.4 L198.8,54.1 L202.6,54.3 L206.4,54.9 L210.2,56.0 L214.0,57.6 L217.8,59.6 L221.6,62.0
		L225.4,64.9 L229.2,68.2 L233.0,71.9 L236.8,76.1 L240.6,80.6 L244.4,85.6 L248.2,90.9 L252.0,96.6
		L255.8,102.6 L259.6,109.0 L263.4,115.6 L267.2,122.6 L271.1,129.9 L274.9,137.4 L278.7,145.2 L282.5,153.2
		L286.3,161.4 L290.1,169.8 L293.9,178.4 L297.7,187.1 L301.5,195.9 L305.3,204.8 L309.1,213.8 L312.9,222.8
		L316.7,231.9 L320.5,241.0 L324.3,250.0 L328.1,259.0 L331.9,268.0 L335.7,276.8 L339.5,285.6 L343.3,294.2
		L347.1,302.7 L350.9,311.0 L354.7,319.1 L358.5,326.9 L362.3,334.6 L366.1,341.9 L369.9,349.0 L373.7,355.9
		L377.5,362.3 L381.3,368.5 L385.1,374.3 L388.9,379.8 L392.7,384.9 L396.6,389.6 L400.4,393.9 L404.2,397.8
		L408.0,401.3 L411.8,404.4 L415.6,407.0 L419.4,409.2 L423.2,410.9 L427.0,412.2 L430.8,413.0 L434.6,413.4
		L438.4,413.3 L442.2,412.7 L446.0,411.7 L449.8,410.3 L453.6,408.4 L457.4,406.0  '/></g>
	</g>
	<g id="gnuplot_plot_2" ><title>cos(x)</title>
<g fill="none" color="black" stroke="currentColor" stroke-width="1.00" stroke-linecap="butt" stroke-linejoin="miter">
	<g transform="translate(532.8,85.0)" stroke="none" fill="black" font-family="Arial" font-size="12.00"  text-anchor="end">
		<text>cos(x)</text>
	</g>
</g>
<g fill="none" color="black" stroke="currentColor" stroke-width="1.00" stroke-linecap="butt" stroke-linejoin="miter">
	<path stroke='rgb(  0, 158, 115)'  d='M541.1,81.1 L583.3,81.1 M80.9,54.1 L84.7,54.3 L88.5,55.0 L92.3,56.2 L96.1,57.8 L99.9,59.8
		L103.7,62.3 L107.5,65.2 L111.3,68.6 L115.1,72.3 L118.9,76.5 L122.7,81.1 L126.5,86.1 L130.3,91.5
		L134.1,97.2 L137.9,103.2 L141.7,109.6 L145.6,116.3 L149.4,123.4 L153.2,130.7 L157.0,138.2 L160.8,146.0
		L164.6,154.0 L168.4,162.3 L172.2,170.7 L176.0,179.3 L179.8,188.0 L183.6,196.8 L187.4,205.7 L191.2,214.7
		L195.0,223.8 L198.8,232.8 L202.6,241.9 L206.4,250.9 L210.2,260.0 L214.0,268.9 L217.8,277.7 L221.6,286.5
		L225.4,295.1 L229.2,303.5 L233.0,311.8 L236.8,319.9 L240.6,327.7 L244.4,335.3 L248.2,342.7 L252.0,349.7
		L255.8,356.5 L259.6,363.0 L263.4,369.1 L267.2,374.9 L271.1,380.3 L274.9,385.4 L278.7,390.1 L282.5,394.3
		L286.3,398.2 L290.1,401.6 L293.9,404.7 L297.7,407.2 L301.5,409.4 L305.3,411.1 L309.1,412.3 L312.9,413.1
		L316.7,413.4 L320.5,413.3 L324.3,412.7 L328.1,411.6 L331.9,410.1 L335.7,408.2 L339.5,405.8 L343.3,402.9
		L347.1,399.7 L350.9,396.0 L354.7,391.9 L358.5,387.3 L362.3,382.4 L366.1,377.2 L369.9,371.5 L373.7,365.5
		L377.5,359.2 L381.3,352.5 L385.1,345.6 L388.9,338.3 L392.7,330.8 L396.6,323.1 L400.4,315.1 L404.2,306.9
		L408.0,298.5 L411.8,290.0 L415.6,281.3 L419.4,272.5 L423.2,263.6 L427.0,254.6 L430.8,245.6 L434.6,236.5
		L438.4,227.4 L442.2,218.4 L446.0,209.4 L449.8,200.4 L453.6,191.6 L457.4,182.8  '/></g>
	</g>
	<g id="gnuplot_plot_3" ><title>erf(x)</title>
<g fill="none" color="black" stroke="currentColor" stroke-width="1.00" stroke-linecap="butt" stroke-linejoin="miter">
	<g transform="translate(532.8,103.0)" stroke="none" fill="black" font-family="Arial" font-size="12.00"  text-anchor="end">
		<text>erf(x)</text>
	</g>
</g>
<g fill="none" color="black" stroke="currentColor" stroke-width="1.00" stroke-linecap="butt" stroke-linejoin="miter">
	<path stroke='rgb( 86, 180, 233)'  d='M541.1,99.1 L583.3,99.1 M80.9,233.7 L84.7,223.5 L88.5,213.3 L92.3,203.3 L96.1,193.3 L99.9,183.6
		L103.7,174.2 L107.5,165.0 L111.3,156.1 L115.1,147.6 L118.9,139.4 L122.7,131.7 L126.5,124.4 L130.3,117.5
		L134.1,111.1 L137.9,105.1 L141.7,99.6 L145.6,94.5 L149.4,89.8 L153.2,85.5 L157.0,81.6 L160.8,78.1
		L164.6,75.0 L168.4,72.1 L172.2,69.6 L176.0,67.4 L179.8,65.5 L183.6,63.8 L187.4,62.3 L191.2,61.0
		L195.0,59.9 L198.8,58.9 L202.6,58.1 L206.4,57.4 L210.2,56.8 L214.0,56.3 L217.8,55.9 L221.6,55.6
		L225.4,55.3 L229.2,55.1 L233.0,54.9 L236.8,54.7 L240.6,54.6 L244.4,54.5 L248.2,54.4 L252.0,54.3
		L255.8,54.3 L259.6,54.2 L263.4,54.2 L267.2,54.2 L271.1,54.2 L274.9,54.1 L278.7,54.1 L282.5,54.1
		L286.3,54.1 L290.1,54.1 L293.9,54.1 L297.7,54.1 L301.5,54.1 L305.3,54.1 L309.1,54.1 L312.9,54.1
		L316.7,54.1 L320.5,54.1 L324.3,54.1 L328.1,54.1 L331.9,54.1 L335.7,54.1 L339.5,54.1 L343.3,54.1
		L347.1,54.1 L350.9,54.1 L354.7,54.1 L358.5,54.1 L362.3,54.1 L366.1,54.1 L369.9,54.1 L373.7,54.1
		L377.5,54.1 L381.3,54.1 L385.1,54.1 L388.9,54.1 L392.7,54.1 L396.6,54.1 L400.4,54.1 L404.2,54.1
		L408.0,54.1 L411.8,54.1 L415.6,54.1 L419.4,54.1 L423.2,54.1 L427.0,54.1 L430.8,54.1 L434.6,54.1
		L438.4,54.1 L442.2,54.1 L446.0,54.1 L449.8,54.1 L453.6,54.1 L457.4,54.1  '/></g>
	</g>
<g fill="none" color="white" stroke="rgb( 86, 180, 233)" stroke-width="2.00" stroke-linecap="butt" stroke-linejoin="miter">
</g>
<g fill="none" color="black" stroke="currentColor" stroke-width="2.00" stroke-linecap="butt" stroke-linejoin="miter">
</g>
<g fill="none" color="black" stroke="black" stroke-width="1.00" stroke-linecap="butt" stroke-linejoin="miter">
</g>
<g fill="none" color="black" stroke="currentColor" stroke-width="1.00" stroke-linecap="butt" stroke-linejoin="miter">
	<path stroke='black'  d='M80.9,54.1 L80.9,413.4 L457.4,413.4 L457.4,54.1 L80.9,54.1 Z  '/></g>
<g fill="none" color="black" stroke="currentColor" stroke-width="1.00" stroke-linecap="butt" stroke-linejoin="miter">
</g>
</g>
</svg>

