

*******************************************************************************
Wed Jun 27 21:06:10 2018


FIT:    data read from "times.txt"
        format = z
        #datapoints = 51
        residuals are weighted equally (unit weight)

function used for fitting: f(x)
	f(x)=b+(x/a)**3
fitted parameters initialized with current variable values

iter      chisq       delta/lim  lambda   b             a            
   0 1.5097379857e+10   0.00e+00  3.64e+04    1.000000e-01   1.000000e+01
  14 2.0213333849e-01  -8.79e-04  3.64e-10   -2.936660e-05   1.523708e+02

After 14 iterations the fit converged.
final sum of squares of residuals : 0.202133
rel. change during last iteration : -8.78865e-09

degrees of freedom    (FIT_NDF)                        : 49
rms of residuals      (FIT_STDFIT) = sqrt(WSSR/ndf)    : 0.0642275
variance of residuals (reduced chisquare) = WSSR/ndf   : 0.00412517

Final set of parameters            Asymptotic Standard Error
=======================            ==========================
b               = -2.93666e-05     +/- 0.02766      (9.419e+04%)
a               = 152.371          +/- 0.2893       (0.1899%)

correlation matrix of the fit parameters:
                b      a      
b               1.000 
a               0.946  1.000 


*******************************************************************************
Wed Jun 27 21:11:26 2018


FIT:    data read from "times.txt"
        format = z
        #datapoints = 51
        residuals are weighted equally (unit weight)

function used for fitting: f(x)
	f(x)=b+(x/a)**3
fitted parameters initialized with current variable values

iter      chisq       delta/lim  lambda   b             a            
   0 1.5097380884e+10   0.00e+00  3.64e+04    1.000000e-01   1.000000e+01
  14 1.5761458357e-01  -1.10e-03  3.64e-10   -2.261421e-02   1.521545e+02

After 14 iterations the fit converged.
final sum of squares of residuals : 0.157615
rel. change during last iteration : -1.09926e-08

degrees of freedom    (FIT_NDF)                        : 49
rms of residuals      (FIT_STDFIT) = sqrt(WSSR/ndf)    : 0.0567153
variance of residuals (reduced chisquare) = WSSR/ndf   : 0.00321662

Final set of parameters            Asymptotic Standard Error
=======================            ==========================
b               = -0.0226142       +/- 0.02442      (108%)
a               = 152.155          +/- 0.2541       (0.167%)

correlation matrix of the fit parameters:
                b      a      
b               1.000 
a               0.946  1.000 


*******************************************************************************
Wed Jun 27 21:17:44 2018


FIT:    data read from "times.txt"
        format = z
        #datapoints = 51
        residuals are weighted equally (unit weight)

function used for fitting: f(x)
	f(x)=b+(x/a)**3
fitted parameters initialized with current variable values

iter      chisq       delta/lim  lambda   b             a            
   0 1.5097380967e+10   0.00e+00  3.64e+04    1.000000e-01   1.000000e+01
  14 1.5544831977e-01  -1.10e-03  3.64e-10   -3.146313e-02   1.520682e+02

After 14 iterations the fit converged.
final sum of squares of residuals : 0.155448
rel. change during last iteration : -1.10322e-08

degrees of freedom    (FIT_NDF)                        : 49
rms of residuals      (FIT_STDFIT) = sqrt(WSSR/ndf)    : 0.0563242
variance of residuals (reduced chisquare) = WSSR/ndf   : 0.00317241

Final set of parameters            Asymptotic Standard Error
=======================            ==========================
b               = -0.0314631       +/- 0.02426      (77.09%)
a               = 152.068          +/- 0.2517       (0.1655%)

correlation matrix of the fit parameters:
                b      a      
b               1.000 
a               0.946  1.000 


*******************************************************************************
Wed Jun 27 21:19:43 2018


FIT:    data read from "times.txt"
        format = z
        #datapoints = 51
        residuals are weighted equally (unit weight)

function used for fitting: f(x)
	f(x)=b+(x/a)**3
fitted parameters initialized with current variable values

iter      chisq       delta/lim  lambda   b             a            
   0 1.5097380967e+10   0.00e+00  3.64e+04    1.000000e-01   1.000000e+01
  14 1.5544831977e-01  -1.10e-03  3.64e-10   -3.146313e-02   1.520682e+02

After 14 iterations the fit converged.
final sum of squares of residuals : 0.155448
rel. change during last iteration : -1.10322e-08

degrees of freedom    (FIT_NDF)                        : 49
rms of residuals      (FIT_STDFIT) = sqrt(WSSR/ndf)    : 0.0563242
variance of residuals (reduced chisquare) = WSSR/ndf   : 0.00317241

Final set of parameters            Asymptotic Standard Error
=======================            ==========================
b               = -0.0314631       +/- 0.02426      (77.09%)
a               = 152.068          +/- 0.2517       (0.1655%)

correlation matrix of the fit parameters:
                b      a      
b               1.000 
a               0.946  1.000 


*******************************************************************************
Sat Jun 30 18:31:56 2018


FIT:    data read from "times.txt"
        format = z
        #datapoints = 51
        residuals are weighted equally (unit weight)

function used for fitting: f(x)
	f(x)=b+(x/a)**3
fitted parameters initialized with current variable values

iter      chisq       delta/lim  lambda   b             a            
   0 1.5096944518e+10   0.00e+00  3.64e+04    1.000000e-01   1.000000e+01
  14 5.3196089498e-01  -2.13e-04  3.64e-10   -7.863204e-02   1.491464e+02

After 14 iterations the fit converged.
final sum of squares of residuals : 0.531961
rel. change during last iteration : -2.12594e-09

degrees of freedom    (FIT_NDF)                        : 49
rms of residuals      (FIT_STDFIT) = sqrt(WSSR/ndf)    : 0.104194
variance of residuals (reduced chisquare) = WSSR/ndf   : 0.0108563

Final set of parameters            Asymptotic Standard Error
=======================            ==========================
b               = -0.078632        +/- 0.04487      (57.06%)
a               = 149.146          +/- 0.4309       (0.2889%)

correlation matrix of the fit parameters:
                b      a      
b               1.000 
a               0.946  1.000 
