 0.47 5.40453
 0.52 5.32589
 0.57 5.24869
 0.62 5.17289
 0.67 5.09847
 0.72 5.0254
 0.77 4.95366
 0.82 4.88323
 0.87 4.81407
 0.92 4.74618
 0.97 4.67952
 1.02 4.61408
 1.07 4.54982
 1.12 4.48674
 1.17 4.4248
 1.22 4.36399
 1.27 4.30428
 1.32 4.24566
 1.37 4.18811
 1.42 4.1316
 1.47 4.07613
 1.52 4.02166
 1.57 3.96818
 1.62 3.91568
 1.67 3.86413
 1.72 3.81352
 1.77 3.76382
 1.82 3.71504
 1.87 3.66714
 1.92 3.62011
 1.97 3.57394
 2.02 3.52861
 2.07 3.4841
 2.12 3.4404
 2.17 3.3975
 2.22 3.35538
 2.27 3.31402
 2.32 3.27342
 2.37 3.23356
 2.42 3.19442
 2.47 3.15599
 2.52 3.11826
 2.57 3.08122
 2.62 3.04485
 2.67 3.00915
 2.72 2.97409
 2.77 2.93967
 2.82 2.90588
 2.87 2.8727
 2.92 2.84013
 2.97 2.80814
 3.02 2.77674
 3.07 2.74592
 3.12 2.71565
 3.17 2.68593
 3.22 2.65675
 3.27 2.62811
 3.32 2.59998
 3.37 2.57237
 3.42 2.54526
 3.47 2.51864
 3.52 2.49251
 3.57 2.46685
 3.62 2.44166
 3.67 2.41693
 3.72 2.39265
 3.77 2.36881
 3.82 2.3454
 3.87 2.32242
 3.92 2.29986
 3.97 2.27771
 4.02 2.25596
 4.07 2.2346
 4.12 2.21364
 4.17 2.19305
 4.22 2.17284
 4.27 2.153
 4.32 2.13352
 4.37 2.1144
 4.42 2.09562
 4.47 2.07718
 4.52 2.05908
 4.57 2.04131
 4.62 2.02386
 4.67 2.00673
 4.72 1.98991
 4.77 1.97339
 4.82 1.95718
 4.87 1.94126
 4.92 1.92563
 4.97 1.91029
 5.02 1.89523
 5.07 1.88043
 5.12 1.86591
 5.17 1.85165
 5.22 1.83766
 5.27 1.82391
 5.32 1.81042
 5.37 1.79717
 5.42 1.78416
 5.47 1.77139
 5.52 1.75886
 5.57 1.74655
 5.62 1.73446
 5.67 1.72259
 5.72 1.71094
 5.77 1.6995
 5.82 1.68827
 5.87 1.67725
 5.92 1.66642
 5.97 1.6558
 6.02 1.64536
 6.07 1.63512
 6.12 1.62506
 6.17 1.61518
 6.22 1.60548
 6.27 1.59596
 6.32 1.58662
 6.37 1.57744
 6.42 1.56843
 6.47 1.55959
 6.52 1.5509
 6.57 1.54238
 6.62 1.534
 6.67 1.52578
 6.72 1.51771
 6.77 1.50979
 6.82 1.50201
 6.87 1.49438
 6.92 1.48688
 6.97 1.47952
 7.02 1.47229
 7.07 1.46519
 7.12 1.45822
 7.17 1.45138
 7.22 1.44467
 7.27 1.43807
 7.32 1.4316
 7.37 1.42524
 7.42 1.419
 7.47 1.41288
 7.52 1.40686
 7.57 1.40095
 7.62 1.39516
 7.67 1.38946
 7.72 1.38387
 7.77 1.37839
 7.82 1.373
 7.87 1.36771
 7.92 1.36251
 7.97 1.35741
 8.02 1.35241
 8.07 1.34749
 8.12 1.34267
 8.17 1.33793
 8.22 1.33328
 8.27 1.32871
 8.32 1.32422
 8.37 1.31982
 8.42 1.3155
 8.47 1.31125
 8.52 1.30709
 8.57 1.303
 8.62 1.29898
 8.67 1.29504
 8.72 1.29117
 8.77 1.28736
 8.82 1.28363
 8.87 1.27997
 8.92 1.27637
 8.97 1.27284
 9.02 1.26937
